{"photos":{"page":1,"pages":10,"perpage":100,"total":999,"photo":[{"id":"52903678147","owner":"25373630@N03","secret":"6367bb1391","server":"65535","farm":66,"title":"365-136.jpg","ispublic":1,"isfriend":0,"isfamily":0,"url_s":"https:\/\/live.staticflickr.com\/65535\/52903678147_6367bb1391_m.jpg","height_s":240,"width_s":160},{"id":"52903681582","owner":"139934177@N04","secret":"d74c8d9645","server":"65535","farm":66,"title":"Duskly Warbler","ispublic":1,"isfriend":0,"isfamily":0,"url_s":"https:\/\/live.staticflickr.com\/65535\/52903681582_d74c8d9645_m.jpg","height_s":155,"width_s":240},{"id":"52903682867","owner":"65679481@N07","secret":"394fb5cf7d","server":"65535","farm":66,"title":"Secretary-General of ASEAN meets with Ambassador of Australia to ASEAN","ispublic":1,"isfriend":0,"isfamily":0,"url_s":"https:\/\/live.staticflickr.com\/65535\/52903682867_394fb5cf7d_m.jpg","height_s":160,"width_s":240},{"id":"52903683682","owner":"192614476@N03","secret":"ea2dd07dba","server":"65535","farm":66,"title":"17. Mai 2023","ispublic":1,"isfriend":0,"isfamily":0,"url_s":"https:\/\/live.staticflickr.com\/65535\/52903683682_ea2dd07dba_m.jpg","height_s":135,"width_s":240},{"id":"52903685132","owner":"186057489@N06","secret":"19c19c8ffd","server":"65535","farm":66,"title":"MTXX_MH20230517_170233482-01","ispublic":1,"isfriend":0,"isfamily":0,"url_s":"https:\/\/live.staticflickr.com\/65535\/52903685132_19c19c8ffd_m.jpg","height_s":240,"width_s":147},{"id":"52903687022","owner":"85903576@N06","secret":"6898e05459","server":"65535","farm":66,"title":"VMFA-115 \"Silver Eagles\" F\/A-18C VE04 Bu.No.165228 @ NAF Atsugi","ispublic":1,"isfriend":0,"isfamily":0,"url_s":"https:\/\/live.staticflickr.com\/65535\/52903687022_6898e05459_m.jpg","height_s":160,"width_s":240},{"id":"52903688032","owner":"63018044@N02","secret":"ee45c3fb01","server":"65535","farm":66,"title":"Kloetinge","ispublic":1,"isfriend":0,"isfamily":0,"url_s":"https:\/\/live.staticflickr.com\/65535\/52903688032_ee45c3fb01_m.jpg","height_s":180,"width_s":240},{"id":"52903689617","owner":"193561110@N04","secret":"30db62f134","server":"65535","farm":66,"title":"Gro\u00dfer Tarifabschluss f\u00fcr 25.000 Luftsicherheitsmitarbeiter: Mehr Zuschl\u00e4ge und F\u00fchrungskr\u00e4ftezulagen","ispublic":1,"isfriend":0,"isfamily":0,"url_s":"https:\/\/live.staticflickr.com\/65535\/52903689617_30db62f134_m.jpg","height_s":201,"width_s":240},{"id":"52903689852","owner":"29089471@N02","secret":"fd8b39e1fe","server":"65535","farm":66,"title":"Vintage Horse Hay Rake","ispublic":1,"isfriend":0,"isfamily":0,"url_s":"https:\/\/live.staticflickr.com\/65535\/52903689852_fd8b39e1fe_m.jpg","height_s":177,"width_s":240},{"id":"52903690757","owner":"7830265@N06","secret":"17d5192d1d","server":"65535","farm":66,"title":"","ispublic":1,"isfriend":0,"isfamily":0,"url_s":"https:\/\/live.staticflickr.com\/65535\/52903690757_17d5192d1d_m.jpg","height_s":240,"width_s":160},{"id":"52903690787","owner":"196362842@N03","secret":"776a4ea576","server":"65535","farm":66,"title":"Storia","ispublic":1,"isfriend":0,"isfamily":0,"url_s":"https:\/\/live.staticflickr.com\/65535\/52903690787_776a4ea576_m.jpg","height_s":240,"width_s":240},{"id":"52903691372","owner":"64455986@N07","secret":"8d2774f9d7","server":"65535","farm":66,"title":"Doncaster","ispublic":1,"isfriend":0,"isfamily":0,"url_s":"https:\/\/live.staticflickr.com\/65535\/52903691372_8d2774f9d7_m.jpg","height_s":160,"width_s":240},{"id":"52903692362","owner":"197265977@N02","secret":"7e61b4fe71","server":"65535","farm":66,"title":"New window","ispublic":1,"isfriend":0,"isfamily":0,"url_s":"https:\/\/live.staticflickr.com\/65535\/52903692362_7e61b4fe71_m.jpg","height_s":240,"width_s":180},{"id":"52903694062","owner":"31751745@N02","secret":"88cc163005","server":"65535","farm":66,"title":"133\/365 2023 Some strange voodoo magic?","ispublic":1,"isfriend":0,"isfamily":0,"url_s":"https:\/\/live.staticflickr.com\/65535\/52903694062_88cc163005_m.jpg","height_s":240,"width_s":180},{"id":"52903695847","owner":"191786298@N05","secret":"dbfee24806","server":"65535","farm":66,"title":"Alaska season 2022\/2023","ispublic":1,"isfriend":0,"isfamily":0,"url_s":"https:\/\/live.staticflickr.com\/65535\/52903695847_dbfee24806_m.jpg","height_s":108,"width_s":240},{"id":"52903695857","owner":"198077644@N07","secret":"41f4719388","server":"65535","farm":66,"title":"20230517_041354","ispublic":1,"isfriend":0,"isfamily":0,"url_s":"https:\/\/live.staticflickr.com\/65535\/52903695857_41f4719388_m.jpg","height_s":240,"width_s":180},{"id":"52903695862","owner":"121066993@N05","secret":"3569f45faf","server":"65535","farm":66,"title":"Promenade des poup\u00e9es","ispublic":1,"isfriend":0,"isfamily":0,"url_s":"https:\/\/live.staticflickr.com\/65535\/52903695862_3569f45faf_m.jpg","height_s":185,"width_s":240},{"id":"52903696012","owner":"12639178@N07","secret":"5ee0d189ff","server":"65535","farm":66,"title":"Anatis ocellata (1)","ispublic":1,"isfriend":0,"isfamily":0,"url_s":"https:\/\/live.staticflickr.com\/65535\/52903696012_5ee0d189ff_m.jpg","height_s":240,"width_s":212},{"id":"52904252386","owner":"151111185@N04","secret":"bda05a7a7d","server":"65535","farm":66,"title":"240 Dropping Down Thru Westminster","ispublic":1,"isfriend":0,"isfamily":0,"url_s":"https:\/\/live.staticflickr.com\/65535\/52904252386_bda05a7a7d_m.jpg","height_s":160,"width_s":240},{"id":"52904253286","owner":"188249803@N06","secret":"054ae43e83","server":"65535","farm":66,"title":"BUS STOP WITH A VIEW","ispublic":1,"isfriend":0,"isfamily":0,"url_s":"https:\/\/live.staticflickr.com\/65535\/52904253286_054ae43e83_m.jpg","height_s":180,"width_s":240},{"id":"52904254356","owner":"154320843@N07","secret":"9ef6116e01","server":"65535","farm":66,"title":"River Niers","ispublic":1,"isfriend":0,"isfamily":0,"url_s":"https:\/\/live.staticflickr.com\/65535\/52904254356_9ef6116e01_m.jpg","height_s":180,"width_s":240},{"id":"52904255166","owner":"185102257@N03","secret":"f7c47b3dfe","server":"65535","farm":66,"title":"Lagerkapazit\u00e4t","ispublic":1,"isfriend":0,"isfamily":0,"url_s":"https:\/\/live.staticflickr.com\/65535\/52904255166_f7c47b3dfe_m.jpg","height_s":160,"width_s":240},{"id":"52904256326","owner":"197350938@N06","secret":"0027e3f14e","server":"65535","farm":66,"title":"[Chuy\u00ean gia gi\u1ea3i \u0111\u00e1p] T\u1ea5m Cement Board l\u00e0 g\u00ec?","ispublic":1,"isfriend":0,"isfamily":0,"url_s":"https:\/\/live.staticflickr.com\/65535\/52904256326_0027e3f14e_m.jpg","height_s":160,"width_s":240},{"id":"52904258941","owner":"152816175@N06","secret":"e39dd85d32","server":"65535","farm":66,"title":"IMG_20230424_143803_820","ispublic":1,"isfriend":0,"isfamily":0,"url_s":"https:\/\/live.staticflickr.com\/65535\/52904258941_e39dd85d32_m.jpg","height_s":240,"width_s":193},{"id":"52904261161","owner":"154812571@N02","secret":"87ca3a9ca0","server":"65535","farm":66,"title":"ZS-DMap 2023-05-17-10.06.55.jpg","ispublic":1,"isfriend":0,"isfamily":0,"url_s":"https:\/\/live.staticflickr.com\/65535\/52904261161_87ca3a9ca0_m.jpg","height_s":240,"width_s":240},{"id":"52904263316","owner":"189631301@N07","secret":"63289afced","server":"65535","farm":66,"title":"Statue of a lady \u00a9","ispublic":1,"isfriend":0,"isfamily":0,"url_s":"https:\/\/live.staticflickr.com\/65535\/52904263316_63289afced_m.jpg","height_s":240,"width_s":180},{"id":"52904267071","owner":"73561613@N06","secret":"8b027e2443","server":"65535","farm":66,"title":"Red rose in bloom in the garden","ispublic":1,"isfriend":0,"isfamily":0,"url_s":"https:\/\/live.staticflickr.com\/65535\/52904267071_8b027e2443_m.jpg","height_s":240,"width_s":240},{"id":"52904267221","owner":"194993267@N08","secret":"5c4ccf98b8","server":"65535","farm":66,"title":"05a2e58f3c35c8d47bc9767ee4bcc8e6","ispublic":1,"isfriend":0,"isfamily":0,"url_s":"https:\/\/live.staticflickr.com\/65535\/52904267221_5c4ccf98b8_m.jpg","height_s":240,"width_s":180},{"id":"52904267606","owner":"99141957@N03","secret":"237c750b8f","server":"65535","farm":66,"title":"","ispublic":1,"isfriend":0,"isfamily":0,"url_s":"https:\/\/live.staticflickr.com\/65535\/52904267606_237c750b8f_m.jpg","height_s":135,"width_s":240},{"id":"52904268781","owner":"192785719@N03","secret":"4c4d6ca539","server":"65535","farm":66,"title":"Mekanisme Pembayaran Pajak : Pajaknesia.id","ispublic":1,"isfriend":0,"isfamily":0,"url_s":"https:\/\/live.staticflickr.com\/65535\/52904268781_4c4d6ca539_m.jpg","height_s":240,"width_s":240},{"id":"52904268886","owner":"198341136@N03","secret":"330daf13aa","server":"65535","farm":66,"title":"Swayambhunathtemple , Nepal","ispublic":1,"isfriend":0,"isfamily":0,"url_s":"https:\/\/live.staticflickr.com\/65535\/52904268886_330daf13aa_m.jpg","height_s":240,"width_s":240},{"id":"52904271091","owner":"197478634@N02","secret":"e298df9ddf","server":"65535","farm":66,"title":"Galata Tower","ispublic":1,"isfriend":0,"isfamily":0,"url_s":"https:\/\/live.staticflickr.com\/65535\/52904271091_e298df9ddf_m.jpg","height_s":240,"width_s":192},{"id":"52904409629","owner":"198326492@N06","secret":"29451f820b","server":"65535","farm":66,"title":"Top game b\u00e0i Sexy hay nh\u1ea5t t\u1ea1i Casino online","ispublic":1,"isfriend":0,"isfamily":0,"url_s":"https:\/\/live.staticflickr.com\/65535\/52904409629_29451f820b_m.jpg","height_s":120,"width_s":240},{"id":"52904412249","owner":"195625698@N08","secret":"0dfdd95ff5","server":"65535","farm":66,"title":"La fioritura dei narcisi sul Monte Croce","ispublic":1,"isfriend":0,"isfamily":0,"url_s":"https:\/\/live.staticflickr.com\/65535\/52904412249_0dfdd95ff5_m.jpg","height_s":160,"width_s":240},{"id":"52904414339","owner":"60676829@N00","secret":"c3ebf5cefb","server":"65535","farm":66,"title":"","ispublic":1,"isfriend":0,"isfamily":0,"url_s":"https:\/\/live.staticflickr.com\/65535\/52904414339_c3ebf5cefb_m.jpg","height_s":240,"width_s":180},{"id":"52904416164","owner":"22446827@N02","secret":"e148800d40","server":"65535","farm":66,"title":"Louloudadika Flower Market Thessaloniki Greece Photo Heatheronhertravels.com","ispublic":1,"isfriend":0,"isfamily":0,"url_s":"https:\/\/live.staticflickr.com\/65535\/52904416164_e148800d40_m.jpg","height_s":180,"width_s":240},{"id":"52904416844","owner":"28948528@N06","secret":"ded4c007d6","server":"65535","farm":66,"title":"Lion","ispublic":1,"isfriend":0,"isfamily":0,"url_s":"https:\/\/live.staticflickr.com\/65535\/52904416844_ded4c007d6_m.jpg","height_s":240,"width_s":240},{"id":"52904419494","owner":"185288333@N07","secret":"d6ff65f454","server":"65535","farm":66,"title":"E-2023-05-17-1810_f","ispublic":1,"isfriend":0,"isfamily":0,"url_s":"https:\/\/live.staticflickr.com\/65535\/52904419494_d6ff65f454_m.jpg","height_s":240,"width_s":240},{"id":"52904421259","owner":"102435355@N04","secret":"ce812dfc7c","server":"65535","farm":66,"title":"Im Entenmarsch Richtung Kleing\u00e4rten","ispublic":1,"isfriend":0,"isfamily":0,"url_s":"https:\/\/live.staticflickr.com\/65535\/52904421259_ce812dfc7c_m.jpg","height_s":160,"width_s":240},{"id":"52904421529","owner":"195791879@N04","secret":"97e00bbff3","server":"65535","farm":66,"title":"chrome_OFBBl9EJdy","ispublic":1,"isfriend":0,"isfamily":0,"url_s":"https:\/\/live.staticflickr.com\/65535\/52904421529_97e00bbff3_m.jpg","height_s":112,"width_s":240},{"id":"52904422409","owner":"197075026@N03","secret":"69d5f33bd5","server":"65535","farm":66,"title":"Photo","ispublic":1,"isfriend":0,"isfamily":0},{"id":"52904423429","owner":"194962583@N03","secret":"66e6542d45","server":"65535","farm":66,"title":"\ud83d\udca9","ispublic":1,"isfriend":0,"isfamily":0,"url_s":"https:\/\/live.staticflickr.com\/65535\/52904423429_66e6542d45_m.jpg","height_s":240,"width_s":154},{"id":"52904425509","owner":"197943050@N02","secret":"2002299562","server":"65535","farm":66,"title":"Rajasthan Board (RBSE) 5th\/8th Class Result 2023","ispublic":1,"isfriend":0,"isfamily":0,"url_s":"https:\/\/live.staticflickr.com\/65535\/52904425509_2002299562_m.jpg","height_s":117,"width_s":240},{"id":"52904427114","owner":"162534725@N07","secret":"0e7aab0e37","server":"65535","farm":66,"title":"","ispublic":1,"isfriend":0,"isfamily":0,"url_s":"https:\/\/live.staticflickr.com\/65535\/52904427114_0e7aab0e37_m.jpg","height_s":240,"width_s":240},{"id":"52904427734","owner":"187113622@N05","secret":"e6f8222cb1","server":"65535","farm":66,"title":"RR Media  E: rrphotomedia@gmail.com  W: https:\/\/www.wsimages.com","ispublic":1,"isfriend":0,"isfamily":0,"url_s":"https:\/\/live.staticflickr.com\/65535\/52904427734_e6f8222cb1_m.jpg","height_s":98,"width_s":240},{"id":"52904428119","owner":"186439286@N08","secret":"7afc454c43","server":"65535","farm":66,"title":"Everybody in bed","ispublic":1,"isfriend":0,"isfamily":0,"url_s":"https:\/\/live.staticflickr.com\/65535\/52904428119_7afc454c43_m.jpg","height_s":240,"width_s":160},{"id":"52904428279","owner":"43556229@N07","secret":"f0de45f034","server":"65535","farm":66,"title":"Wysteria","ispublic":1,"isfriend":0,"isfamily":0,"url_s":"https:\/\/live.staticflickr.com\/65535\/52904428279_f0de45f034_m.jpg","height_s":240,"width_s":160},{"id":"52904428284","owner":"169920379@N03","secret":"f47081e960","server":"65535","farm":66,"title":"International Air Response Lockheed C-130A Hercules N120TG","ispublic":1,"isfriend":0,"isfamily":0,"url_s":"https:\/\/live.staticflickr.com\/65535\/52904428284_f47081e960_m.jpg","height_s":135,"width_s":240},{"id":"52904428434","owner":"198350441@N04","secret":"a76b35290e","server":"65535","farm":66,"title":"iPhone Pics","ispublic":1,"isfriend":0,"isfamily":0,"url_s":"https:\/\/live.staticflickr.com\/65535\/52904428434_a76b35290e_m.jpg","height_s":180,"width_s":240},{"id":"52904635020","owner":"195345667@N07","secret":"b8cee1f89a","server":"65535","farm":66,"title":"Respect","ispublic":1,"isfriend":0,"isfamily":0,"url_s":"https:\/\/live.staticflickr.com\/65535\/52904635020_b8cee1f89a_m.jpg","height_s":240,"width_s":159},{"id":"52904635820","owner":"192472891@N02","secret":"fa2de5a1e5","server":"65535","farm":66,"title":"SG1886S 198","ispublic":1,"isfriend":0,"isfamily":0,"url_s":"https:\/\/live.staticflickr.com\/65535\/52904635820_fa2de5a1e5_m.jpg","height_s":160,"width_s":240},{"id":"52904637105","owner":"38054302@N05","secret":"e2b10a9477","server":"65535","farm":66,"title":"1K0A4651.jpg","ispublic":1,"isfriend":0,"isfamily":0,"url_s":"https:\/\/live.staticflickr.com\/65535\/52904637105_e2b10a9477_m.jpg","height_s":160,"width_s":240},{"id":"52904637850","owner":"194567662@N05","secret":"282b407ab4","server":"65535","farm":66,"title":"H\u1ed3 b\u01a1i Lao \u0110\u1ed9ng: Gi\u00e1 v\u00e9, gi\u1edd m\u1edf c\u1eeda, su\u1ea5t b\u01a1i, \u0111\u1ecba ch\u1ec9","ispublic":1,"isfriend":0,"isfamily":0,"url_s":"https:\/\/live.staticflickr.com\/65535\/52904637850_282b407ab4_m.jpg","height_s":161,"width_s":240},{"id":"52904640305","owner":"164481656@N06","secret":"4517796fcc","server":"65535","farm":66,"title":"2023-05-17_10-06-23","ispublic":1,"isfriend":0,"isfamily":0,"url_s":"https:\/\/live.staticflickr.com\/65535\/52904640305_4517796fcc_m.jpg","height_s":160,"width_s":240},{"id":"52904640900","owner":"195590384@N03","secret":"57bc8538bb","server":"65535","farm":66,"title":"Odakyu Electric Railway Series 1000","ispublic":1,"isfriend":0,"isfamily":0,"url_s":"https:\/\/live.staticflickr.com\/65535\/52904640900_57bc8538bb_m.jpg","height_s":160,"width_s":240},{"id":"52904641130","owner":"81502760@N00","secret":"7eb717a0af","server":"65535","farm":66,"title":"Donner pass","ispublic":1,"isfriend":0,"isfamily":0,"url_s":"https:\/\/live.staticflickr.com\/65535\/52904641130_7eb717a0af_m.jpg","height_s":180,"width_s":240},{"id":"52904643255","owner":"143245412@N02","secret":"1cb9af4494","server":"65535","farm":66,"title":"A quiet moment in the garden","ispublic":1,"isfriend":0,"isfamily":0,"url_s":"https:\/\/live.staticflickr.com\/65535\/52904643255_1cb9af4494_m.jpg","height_s":160,"width_s":240},{"id":"52904644390","owner":"195154373@N06","secret":"806ebd87bb","server":"65535","farm":66,"title":"Crossdresser Selfie","ispublic":1,"isfriend":0,"isfamily":0,"url_s":"https:\/\/live.staticflickr.com\/65535\/52904644390_806ebd87bb_m.jpg","height_s":240,"width_s":180},{"id":"52904644980","owner":"198160505@N07","secret":"e1082514a1","server":"65535","farm":66,"title":"IMG_20230517_102827","ispublic":1,"isfriend":0,"isfamily":0,"url_s":"https:\/\/live.staticflickr.com\/65535\/52904644980_e1082514a1_m.jpg","height_s":180,"width_s":240},{"id":"52904645070","owner":"97102756@N07","secret":"be6a09c2b8","server":"65535","farm":66,"title":"E-2023-05-17-1810_f","ispublic":1,"isfriend":0,"isfamily":0,"url_s":"https:\/\/live.staticflickr.com\/65535\/52904645070_be6a09c2b8_m.jpg","height_s":240,"width_s":240},{"id":"52904645365","owner":"188632762@N03","secret":"371a07f6f2","server":"65535","farm":66,"title":"D\u00dcREN","ispublic":1,"isfriend":0,"isfamily":0,"url_s":"https:\/\/live.staticflickr.com\/65535\/52904645365_371a07f6f2_m.jpg","height_s":240,"width_s":111},{"id":"52904645430","owner":"197536557@N02","secret":"9656a7f44c","server":"65535","farm":66,"title":"IMG_1014","ispublic":1,"isfriend":0,"isfamily":0,"url_s":"https:\/\/live.staticflickr.com\/65535\/52904645430_9656a7f44c_m.jpg","height_s":240,"width_s":160},{"id":"52904645880","owner":"193131942@N08","secret":"929f942abb","server":"65535","farm":66,"title":"Soledad","ispublic":1,"isfriend":0,"isfamily":0,"url_s":"https:\/\/live.staticflickr.com\/65535\/52904645880_929f942abb_m.jpg","height_s":160,"width_s":240},{"id":"52904647710","owner":"19333590@N00","secret":"3e6baa0399","server":"65535","farm":66,"title":"I Walk the Line","ispublic":1,"isfriend":0,"isfamily":0,"url_s":"https:\/\/live.staticflickr.com\/65535\/52904647710_3e6baa0399_m.jpg","height_s":158,"width_s":240},{"id":"52904648050","owner":"193732322@N06","secret":"785478d059","server":"65535","farm":66,"title":"back words ...","ispublic":1,"isfriend":0,"isfamily":0,"url_s":"https:\/\/live.staticflickr.com\/65535\/52904648050_785478d059_m.jpg","height_s":178,"width_s":240},{"id":"52904648075","owner":"184386451@N04","secret":"a138bbb951","server":"65535","farm":66,"title":"IMG_20230517_110240","ispublic":1,"isfriend":0,"isfamily":0,"url_s":"https:\/\/live.staticflickr.com\/65535\/52904648075_a138bbb951_m.jpg","height_s":180,"width_s":240},{"id":"52904648265","owner":"191264888@N07","secret":"061cafb7df","server":"65535","farm":66,"title":"2023-05-17_12-12-49","ispublic":1,"isfriend":0,"isfamily":0,"url_s":"https:\/\/live.staticflickr.com\/65535\/52904648265_061cafb7df_m.jpg","height_s":240,"width_s":180},{"id":"52904649025","owner":"27980334@N03","secret":"6ef201f3aa","server":"65535","farm":66,"title":"Escaleras","ispublic":1,"isfriend":0,"isfamily":0,"url_s":"https:\/\/live.staticflickr.com\/65535\/52904649025_6ef201f3aa_m.jpg","height_s":240,"width_s":180},{"id":"52904649890","owner":"198017575@N06","secret":"8075f2628a","server":"65535","farm":66,"title":"Partial view of the old City Hall where the Smetana Concert Hall was located","ispublic":1,"isfriend":0,"isfamily":0,"url_s":"https:\/\/live.staticflickr.com\/65535\/52904649890_8075f2628a_m.jpg","height_s":159,"width_s":240},{"id":"52904650080","owner":"197344267@N07","secret":"cd81db8736","server":"65535","farm":66,"title":"Weekend with no plans","ispublic":1,"isfriend":0,"isfamily":0,"url_s":"https:\/\/live.staticflickr.com\/65535\/52904650080_cd81db8736_m.jpg","height_s":240,"width_s":100},{"id":"52904650210","owner":"198267137@N08","secret":"76746d85c4","server":"65535","farm":66,"title":"Animal","ispublic":1,"isfriend":0,"isfamily":0,"url_s":"https:\/\/live.staticflickr.com\/65535\/52904650210_76746d85c4_m.jpg","height_s":240,"width_s":240},{"id":"52904653195","owner":"20936529@N03","secret":"b0a919f9c2","server":"65535","farm":66,"title":"Dorade","ispublic":1,"isfriend":0,"isfamily":0,"url_s":"https:\/\/live.staticflickr.com\/65535\/52904653195_b0a919f9c2_m.jpg","height_s":111,"width_s":240},{"id":"52904653530","owner":"58865095@N07","secret":"f7beac347c","server":"65535","farm":66,"title":"IMG_1704.jpeg","ispublic":1,"isfriend":0,"isfamily":0,"url_s":"https:\/\/live.staticflickr.com\/65535\/52904653530_f7beac347c_m.jpg","height_s":53,"width_s":240},{"id":"52904653970","owner":"47629856@N02","secret":"15cb13a953","server":"65535","farm":66,"title":"harlow","ispublic":1,"isfriend":0,"isfamily":0,"url_s":"https:\/\/live.staticflickr.com\/65535\/52904653970_15cb13a953_m.jpg","height_s":195,"width_s":240},{"id":"52904654180","owner":"162830196@N03","secret":"e4b3dcb871","server":"65535","farm":66,"title":"","ispublic":1,"isfriend":0,"isfamily":0,"url_s":"https:\/\/live.staticflickr.com\/65535\/52904654180_e4b3dcb871_m.jpg","height_s":240,"width_s":177},{"id":"52904698873","owner":"186704385@N06","secret":"5c1ff64e27","server":"65535","farm":66,"title":"Splitter anteriore V.2 for BMW 1 F40 M-Pack\/ M135i  nero lucido (Cod. M-BM-1-40-MPACK-FD2G)","ispublic":1,"isfriend":0,"isfamily":0,"url_s":"https:\/\/live.staticflickr.com\/65535\/52904698873_5c1ff64e27_m.jpg","height_s":144,"width_s":240},{"id":"52904699278","owner":"147552640@N03","secret":"098c7e3434","server":"65535","farm":66,"title":"20230517_110130","ispublic":1,"isfriend":0,"isfamily":0,"url_s":"https:\/\/live.staticflickr.com\/65535\/52904699278_098c7e3434_m.jpg","height_s":240,"width_s":240},{"id":"52904699283","owner":"197966135@N08","secret":"94ac4f021d","server":"65535","farm":66,"title":"Rajasthan Board 5th Class Result 2023 \u0930\u093e\u091c\u0938\u094d\u0925\u093e\u0928 \u092c\u094b\u0930\u094d\u0921 5\u0935\u0940 \u0915\u093e \u0930\u093f\u091c\u0932\u094d\u091f \u0915\u092c \u091c\u093e\u0930\u0940 \u0939\u094b\u0917\u093e ? \u0930\u093f\u091c\u0932\u094d\u091f 2023 \u092f\u0939\u093e\u0902 \u0938\u0947 \u0926\u0947\u0916\u0947","ispublic":1,"isfriend":0,"isfamily":0,"url_s":"https:\/\/live.staticflickr.com\/65535\/52904699283_94ac4f021d_m.jpg","height_s":160,"width_s":240},{"id":"52904699348","owner":"191360165@N03","secret":"27dd72c3f0","server":"65535","farm":66,"title":"Religious road side - Southwest Six Print","ispublic":1,"isfriend":0,"isfamily":0,"url_s":"https:\/\/live.staticflickr.com\/65535\/52904699348_27dd72c3f0_m.jpg","height_s":240,"width_s":240},{"id":"52904702473","owner":"184637695@N02","secret":"0f0a783e07","server":"65535","farm":66,"title":"Tiny Humans,  Vast Nature","ispublic":1,"isfriend":0,"isfamily":0,"url_s":"https:\/\/live.staticflickr.com\/65535\/52904702473_0f0a783e07_m.jpg","height_s":160,"width_s":240},{"id":"52904702513","owner":"193102270@N05","secret":"58cc7dd126","server":"65535","farm":66,"title":"Melbourne Landscape","ispublic":1,"isfriend":0,"isfamily":0,"url_s":"https:\/\/live.staticflickr.com\/65535\/52904702513_58cc7dd126_m.jpg","height_s":160,"width_s":240},{"id":"52904703513","owner":"198329784@N03","secret":"0f2419fbeb","server":"65535","farm":66,"title":"2023-05-17_02-05-16","ispublic":1,"isfriend":0,"isfamily":0,"url_s":"https:\/\/live.staticflickr.com\/65535\/52904703513_0f2419fbeb_m.jpg","height_s":240,"width_s":105},{"id":"52904703628","owner":"182940430@N03","secret":"7d906f09bd","server":"65535","farm":66,"title":"FLW-ENSIS: Nr. 5 von 5 Funktionen \u2013 Spalt\u00fcberbr\u00fcckung durch SCHWEISSDRAHTZUFUHR","ispublic":1,"isfriend":0,"isfamily":0,"url_s":"https:\/\/live.staticflickr.com\/65535\/52904703628_7d906f09bd_m.jpg","height_s":135,"width_s":240},{"id":"52904705993","owner":"198114074@N07","secret":"e0e5f14d0f","server":"65535","farm":66,"title":"Number 876 Exiting the Corner","ispublic":1,"isfriend":0,"isfamily":0,"url_s":"https:\/\/live.staticflickr.com\/65535\/52904705993_e0e5f14d0f_m.jpg","height_s":240,"width_s":171},{"id":"52904706483","owner":"196672145@N06","secret":"65c90c8f61","server":"65535","farm":66,"title":"Sensual striptease with alluring blonde babe Tamara F  #hot #sexy #love #beautiful #model #cute #sexywomens #beautifulgirls #beautifulgirls #sexywomen #sexywomans #hot #sexy #love #beautiful #model #follow #cute #like #sexy","ispublic":1,"isfriend":0,"isfamily":0,"url_s":"https:\/\/live.staticflickr.com\/65535\/52904706483_65c90c8f61_m.jpg","height_s":240,"width_s":190},{"id":"52904706923","owner":"153121241@N04","secret":"6f405ce618","server":"65535","farm":66,"title":"\u275d\u09b0\u0999\u09cd\u0997\u09c7\u09b0 \u09a6\u09c1\u09a8\u09bf\u09af\u09bc\u09be \u09a4\u09cb\u09b0\u09c7 \u099a\u09be\u0987 \u09a8\u09be\u275e","ispublic":1,"isfriend":0,"isfamily":0,"url_s":"https:\/\/live.staticflickr.com\/65535\/52904706923_6f405ce618_m.jpg","height_s":240,"width_s":192},{"id":"52904707078","owner":"196517219@N05","secret":"084ba64836","server":"65535","farm":66,"title":"Photo","ispublic":1,"isfriend":0,"isfamily":0},{"id":"52904707228","owner":"86035135@N00","secret":"a9fc39c754","server":"65535","farm":66,"title":".","ispublic":1,"isfriend":0,"isfamily":0,"url_s":"https:\/\/live.staticflickr.com\/65535\/52904707228_a9fc39c754_m.jpg","height_s":160,"width_s":240},{"id":"52904708613","owner":"132098970@N02","secret":"075b24769e","server":"65535","farm":66,"title":"Land of the lost caravan","ispublic":1,"isfriend":0,"isfamily":0,"url_s":"https:\/\/live.staticflickr.com\/65535\/52904708613_075b24769e_m.jpg","height_s":135,"width_s":240},{"id":"52904709383","owner":"197570954@N06","secret":"2d0d9428d0","server":"65535","farm":66,"title":"Ketchup & Mustard","ispublic":1,"isfriend":0,"isfamily":0,"url_s":"https:\/\/live.staticflickr.com\/65535\/52904709383_2d0d9428d0_m.jpg","height_s":240,"width_s":240},{"id":"52904709388","owner":"135483583@N04","secret":"e6066cee75","server":"65535","farm":66,"title":"IMG_20230517_164557","ispublic":1,"isfriend":0,"isfamily":0,"url_s":"https:\/\/live.staticflickr.com\/65535\/52904709388_e6066cee75_m.jpg","height_s":180,"width_s":240},{"id":"52904710333","owner":"27898719@N02","secret":"d277db17c9","server":"65535","farm":66,"title":"Reifenwechsel bei der BMW R1250 GS Adventure.  #bmwmotorrad #makelifearide #bmwgsfans #gsrider #bmwadventure #spiritofgs #bmwr1250gsadventure","ispublic":1,"isfriend":0,"isfamily":0,"url_s":"https:\/\/live.staticflickr.com\/65535\/52904710333_d277db17c9_m.jpg","height_s":240,"width_s":240},{"id":"52904711918","owner":"60667578@N07","secret":"ae0a3510fb","server":"65535","farm":66,"title":"Tunbridge Wells","ispublic":1,"isfriend":0,"isfamily":0,"url_s":"https:\/\/live.staticflickr.com\/65535\/52904711918_ae0a3510fb_m.jpg","height_s":180,"width_s":240},{"id":"52904713218","owner":"11568687@N08","secret":"7a7fea37ba","server":"65535","farm":66,"title":"Toyota GR Yaris","ispublic":1,"isfriend":0,"isfamily":0,"url_s":"https:\/\/live.staticflickr.com\/65535\/52904713218_7a7fea37ba_m.jpg","height_s":160,"width_s":240},{"id":"52904713813","owner":"191911766@N04","secret":"555accc179","server":"65535","farm":66,"title":"YX06 CXK","ispublic":1,"isfriend":0,"isfamily":0,"url_s":"https:\/\/live.staticflickr.com\/65535\/52904713813_555accc179_m.jpg","height_s":181,"width_s":240},{"id":"52904715583","owner":"76014305@N08","secret":"a1e1a37d9f","server":"65535","farm":66,"title":"","ispublic":1,"isfriend":0,"isfamily":0,"url_s":"https:\/\/live.staticflickr.com\/65535\/52904715583_a1e1a37d9f_m.jpg","height_s":240,"width_s":185},{"id":"52904716398","owner":"54989697@N02","secret":"c9c52ef1ed","server":"65535","farm":66,"title":"Dia limpio","ispublic":1,"isfriend":0,"isfamily":0,"url_s":"https:\/\/live.staticflickr.com\/65535\/52904716398_c9c52ef1ed_m.jpg","height_s":160,"width_s":240},{"id":"52904716868","owner":"198331879@N03","secret":"be170ca608","server":"65535","farm":66,"title":"juliaann","ispublic":1,"isfriend":0,"isfamily":0,"url_s":"https:\/\/live.staticflickr.com\/65535\/52904716868_be170ca608_m.jpg","height_s":240,"width_s":192},{"id":"52904717093","owner":"141450403@N06","secret":"3564eb3347","server":"65535","farm":66,"title":"0Q6A0684.jpg","ispublic":1,"isfriend":0,"isfamily":0,"url_s":"https:\/\/live.staticflickr.com\/65535\/52904717093_3564eb3347_m.jpg","height_s":160,"width_s":240}]},"stat":"ok"}